﻿Center A,Center B
97,64
95,85
89,72
79,64
78,74
87,93
83,70
94,79
76,79
79,75
83,66
84,83
76,74
82,70
85,82
85,82
91,75
72,78
86,99
70,57
91,91
82,78
73,87
96,93
64,89
74,81
88,84
88,63
60,78
73,66
,84
,85
,85
,84
,59
,62
,91
,83
,80
,76
,